sample_code/lab3_cpu.vcd
$date
	Tue May 19 19:05:20 2020
$end
$version
	Icarus Verilog
$end
$timescale
	1ps
$end
$scope module TestBench $end
$scope module cpu $end
$var wire 1 ! clk_i $end
$var wire 1 " rst_i $end
$var wire 1 # zero $end
$var wire 1 $ sign $end
$var wire 1 % reg_write $end
$var wire 1 & reg_dst $end
$var wire 32 ' instruction [31:0] $end
$var wire 1 ( branch_eq $end
$var wire 1 ) branch $end
$var wire 1 * alu_src2 $end
$var wire 1 + alu_src1 $end
$var wire 4 , alu_op [3:0] $end
$var wire 4 - alu_ctrl [3:0] $end
$var wire 32 . RTdata [31:0] $end
$var wire 32 / RSdata [31:0] $end
$var wire 32 0 RDdata [31:0] $end
$var wire 5 1 RD_addr [4:0] $end
$var wire 32 2 ProgramCounter_w [31:0] $end
$var wire 32 3 ProgramCounter_o [31:0] $end
$var wire 32 4 ProgramCounter_i [31:0] $end
$var wire 32 5 ProgramCounter_b [31:0] $end
$var wire 32 6 ProgramCounter_4w [31:0] $end
$var wire 32 7 ProgramCounter_4 [31:0] $end
$var wire 32 8 Mux_Alu_src2 [31:0] $end
$var wire 32 9 Mux_Alu_src1 [31:0] $end
$scope module AC $end
$var wire 6 : funct_i [5:0] $end
$var wire 4 ; ALUOp_i [3:0] $end
$var reg 4 < ALUCtrl_o [3:0] $end
$var reg 1 + Mux_ALU_src1 $end
$var reg 1 $ Sign_extend_o $end
$upscope $end
$scope module ALU $end
$var wire 4 = ctrl_i [3:0] $end
$var wire 1 " rst_n $end
$var wire 1 # zero_o $end
$var wire 32 > src2_i [31:0] $end
$var wire 32 ? src1_i [31:0] $end
$var wire 64 @ shift_src [63:0] $end
$var wire 32 A result_out [31:0] $end
$var wire 1 B overflow_out $end
$var wire 1 C cout_out $end
$var reg 4 D ALU_Ctrl [3:0] $end
$var reg 3 E comp [2:0] $end
$var reg 32 F result_o [31:0] $end
$scope module alu $end
$var wire 4 G ALU_control [3:0] $end
$var wire 3 H comp [2:0] $end
$var wire 32 I result [31:0] $end
$var wire 1 " rst_n $end
$var wire 32 J src2 [31:0] $end
$var wire 32 K src1 [31:0] $end
$var wire 32 L result_wire [31:0] $end
$var wire 33 M carry [32:0] $end
$var reg 1 N A_invert $end
$var reg 1 O B_invert $end
$var reg 1 C cout $end
$var reg 2 P operation [1:0] $end
$var reg 1 B overflow $end
$var reg 32 Q result_reg [31:0] $end
$var reg 1 # zero $end
$scope begin genblk1[1] $end
$scope module a $end
$var wire 1 N A_invert $end
$var wire 1 O B_invert $end
$var wire 1 R cin $end
$var wire 3 S comp [2:0] $end
$var wire 2 T operation [1:0] $end
$var wire 1 U src1 $end
$var wire 1 V src2 $end
$var wire 1 W cout $end
$var wire 1 X add_result $end
$var reg 1 Y result $end
$scope module add_part $end
$var wire 1 Z A $end
$var wire 1 [ B $end
$var wire 1 R CIN $end
$var wire 1 X SUM $end
$var wire 1 W COUT $end
$upscope $end
$upscope $end
$upscope $end
$scope begin genblk1[2] $end
$scope module a $end
$var wire 1 N A_invert $end
$var wire 1 O B_invert $end
$var wire 1 \ cin $end
$var wire 3 ] comp [2:0] $end
$var wire 2 ^ operation [1:0] $end
$var wire 1 _ src1 $end
$var wire 1 ` src2 $end
$var wire 1 a cout $end
$var wire 1 b add_result $end
$var reg 1 c result $end
$scope module add_part $end
$var wire 1 d A $end
$var wire 1 e B $end
$var wire 1 \ CIN $end
$var wire 1 b SUM $end
$var wire 1 a COUT $end
$upscope $end
$upscope $end
$upscope $end
$scope begin genblk1[3] $end
$scope module a $end
$var wire 1 N A_invert $end
$var wire 1 O B_invert $end
$var wire 1 f cin $end
$var wire 3 g comp [2:0] $end
$var wire 2 h operation [1:0] $end
$var wire 1 i src1 $end
$var wire 1 j src2 $end
$var wire 1 k cout $end
$var wire 1 l add_result $end
$var reg 1 m result $end
$scope module add_part $end
$var wire 1 n A $end
$var wire 1 o B $end
$var wire 1 f CIN $end
$var wire 1 l SUM $end
$var wire 1 k COUT $end
$upscope $end
$upscope $end
$upscope $end
$scope begin genblk1[4] $end
$scope module a $end
$var wire 1 N A_invert $end
$var wire 1 O B_invert $end
$var wire 1 p cin $end
$var wire 3 q comp [2:0] $end
$var wire 2 r operation [1:0] $end
$var wire 1 s src1 $end
$var wire 1 t src2 $end
$var wire 1 u cout $end
$var wire 1 v add_result $end
$var reg 1 w result $end
$scope module add_part $end
$var wire 1 x A $end
$var wire 1 y B $end
$var wire 1 p CIN $end
$var wire 1 v SUM $end
$var wire 1 u COUT $end
$upscope $end
$upscope $end
$upscope $end
$scope begin genblk1[5] $end
$scope module a $end
$var wire 1 N A_invert $end
$var wire 1 O B_invert $end
$var wire 1 z cin $end
$var wire 3 { comp [2:0] $end
$var wire 2 | operation [1:0] $end
$var wire 1 } src1 $end
$var wire 1 ~ src2 $end
$var wire 1 !" cout $end
$var wire 1 "" add_result $end
$var reg 1 #" result $end
$scope module add_part $end
$var wire 1 $" A $end
$var wire 1 %" B $end
$var wire 1 z CIN $end
$var wire 1 "" SUM $end
$var wire 1 !" COUT $end
$upscope $end
$upscope $end
$upscope $end
$scope begin genblk1[6] $end
$scope module a $end
$var wire 1 N A_invert $end
$var wire 1 O B_invert $end
$var wire 1 &" cin $end
$var wire 3 '" comp [2:0] $end
$var wire 2 (" operation [1:0] $end
$var wire 1 )" src1 $end
$var wire 1 *" src2 $end
$var wire 1 +" cout $end
$var wire 1 ," add_result $end
$var reg 1 -" result $end
$scope module add_part $end
$var wire 1 ." A $end
$var wire 1 /" B $end
$var wire 1 &" CIN $end
$var wire 1 ," SUM $end
$var wire 1 +" COUT $end
$upscope $end
$upscope $end
$upscope $end
$scope begin genblk1[7] $end
$scope module a $end
$var wire 1 N A_invert $end
$var wire 1 O B_invert $end
$var wire 1 0" cin $end
$var wire 3 1" comp [2:0] $end
$var wire 2 2" operation [1:0] $end
$var wire 1 3" src1 $end
$var wire 1 4" src2 $end
$var wire 1 5" cout $end
$var wire 1 6" add_result $end
$var reg 1 7" result $end
$scope module add_part $end
$var wire 1 8" A $end
$var wire 1 9" B $end
$var wire 1 0" CIN $end
$var wire 1 6" SUM $end
$var wire 1 5" COUT $end
$upscope $end
$upscope $end
$upscope $end
$scope begin genblk1[8] $end
$scope module a $end
$var wire 1 N A_invert $end
$var wire 1 O B_invert $end
$var wire 1 :" cin $end
$var wire 3 ;" comp [2:0] $end
$var wire 2 <" operation [1:0] $end
$var wire 1 =" src1 $end
$var wire 1 >" src2 $end
$var wire 1 ?" cout $end
$var wire 1 @" add_result $end
$var reg 1 A" result $end
$scope module add_part $end
$var wire 1 B" A $end
$var wire 1 C" B $end
$var wire 1 :" CIN $end
$var wire 1 @" SUM $end
$var wire 1 ?" COUT $end
$upscope $end
$upscope $end
$upscope $end
$scope begin genblk1[9] $end
$scope module a $end
$var wire 1 N A_invert $end
$var wire 1 O B_invert $end
$var wire 1 D" cin $end
$var wire 3 E" comp [2:0] $end
$var wire 2 F" operation [1:0] $end
$var wire 1 G" src1 $end
$var wire 1 H" src2 $end
$var wire 1 I" cout $end
$var wire 1 J" add_result $end
$var reg 1 K" result $end
$scope module add_part $end
$var wire 1 L" A $end
$var wire 1 M" B $end
$var wire 1 D" CIN $end
$var wire 1 J" SUM $end
$var wire 1 I" COUT $end
$upscope $end
$upscope $end
$upscope $end
$scope begin genblk1[10] $end
$scope module a $end
$var wire 1 N A_invert $end
$var wire 1 O B_invert $end
$var wire 1 N" cin $end
$var wire 3 O" comp [2:0] $end
$var wire 2 P" operation [1:0] $end
$var wire 1 Q" src1 $end
$var wire 1 R" src2 $end
$var wire 1 S" cout $end
$var wire 1 T" add_result $end
$var reg 1 U" result $end
$scope module add_part $end
$var wire 1 V" A $end
$var wire 1 W" B $end
$var wire 1 N" CIN $end
$var wire 1 T" SUM $end
$var wire 1 S" COUT $end
$upscope $end
$upscope $end
$upscope $end
$scope begin genblk1[11] $end
$scope module a $end
$var wire 1 N A_invert $end
$var wire 1 O B_invert $end
$var wire 1 X" cin $end
$var wire 3 Y" comp [2:0] $end
$var wire 2 Z" operation [1:0] $end
$var wire 1 [" src1 $end
$var wire 1 \" src2 $end
$var wire 1 ]" cout $end
$var wire 1 ^" add_result $end
$var reg 1 _" result $end
$scope module add_part $end
$var wire 1 `" A $end
$var wire 1 a" B $end
$var wire 1 X" CIN $end
$var wire 1 ^" SUM $end
$var wire 1 ]" COUT $end
$upscope $end
$upscope $end
$upscope $end
$scope begin genblk1[12] $end
$scope module a $end
$var wire 1 N A_invert $end
$var wire 1 O B_invert $end
$var wire 1 b" cin $end
$var wire 3 c" comp [2:0] $end
$var wire 2 d" operation [1:0] $end
$var wire 1 e" src1 $end
$var wire 1 f" src2 $end
$var wire 1 g" cout $end
$var wire 1 h" add_result $end
$var reg 1 i" result $end
$scope module add_part $end
$var wire 1 j" A $end
$var wire 1 k" B $end
$var wire 1 b" CIN $end
$var wire 1 h" SUM $end
$var wire 1 g" COUT $end
$upscope $end
$upscope $end
$upscope $end
$scope begin genblk1[13] $end
$scope module a $end
$var wire 1 N A_invert $end
$var wire 1 O B_invert $end
$var wire 1 l" cin $end
$var wire 3 m" comp [2:0] $end
$var wire 2 n" operation [1:0] $end
$var wire 1 o" src1 $end
$var wire 1 p" src2 $end
$var wire 1 q" cout $end
$var wire 1 r" add_result $end
$var reg 1 s" result $end
$scope module add_part $end
$var wire 1 t" A $end
$var wire 1 u" B $end
$var wire 1 l" CIN $end
$var wire 1 r" SUM $end
$var wire 1 q" COUT $end
$upscope $end
$upscope $end
$upscope $end
$scope begin genblk1[14] $end
$scope module a $end
$var wire 1 N A_invert $end
$var wire 1 O B_invert $end
$var wire 1 v" cin $end
$var wire 3 w" comp [2:0] $end
$var wire 2 x" operation [1:0] $end
$var wire 1 y" src1 $end
$var wire 1 z" src2 $end
$var wire 1 {" cout $end
$var wire 1 |" add_result $end
$var reg 1 }" result $end
$scope module add_part $end
$var wire 1 ~" A $end
$var wire 1 !# B $end
$var wire 1 v" CIN $end
$var wire 1 |" SUM $end
$var wire 1 {" COUT $end
$upscope $end
$upscope $end
$upscope $end
$scope begin genblk1[15] $end
$scope module a $end
$var wire 1 N A_invert $end
$var wire 1 O B_invert $end
$var wire 1 "# cin $end
$var wire 3 ## comp [2:0] $end
$var wire 2 $# operation [1:0] $end
$var wire 1 %# src1 $end
$var wire 1 &# src2 $end
$var wire 1 '# cout $end
$var wire 1 (# add_result $end
$var reg 1 )# result $end
$scope module add_part $end
$var wire 1 *# A $end
$var wire 1 +# B $end
$var wire 1 "# CIN $end
$var wire 1 (# SUM $end
$var wire 1 '# COUT $end
$upscope $end
$upscope $end
$upscope $end
$scope begin genblk1[16] $end
$scope module a $end
$var wire 1 N A_invert $end
$var wire 1 O B_invert $end
$var wire 1 ,# cin $end
$var wire 3 -# comp [2:0] $end
$var wire 2 .# operation [1:0] $end
$var wire 1 /# src1 $end
$var wire 1 0# src2 $end
$var wire 1 1# cout $end
$var wire 1 2# add_result $end
$var reg 1 3# result $end
$scope module add_part $end
$var wire 1 4# A $end
$var wire 1 5# B $end
$var wire 1 ,# CIN $end
$var wire 1 2# SUM $end
$var wire 1 1# COUT $end
$upscope $end
$upscope $end
$upscope $end
$scope begin genblk1[17] $end
$scope module a $end
$var wire 1 N A_invert $end
$var wire 1 O B_invert $end
$var wire 1 6# cin $end
$var wire 3 7# comp [2:0] $end
$var wire 2 8# operation [1:0] $end
$var wire 1 9# src1 $end
$var wire 1 :# src2 $end
$var wire 1 ;# cout $end
$var wire 1 <# add_result $end
$var reg 1 =# result $end
$scope module add_part $end
$var wire 1 ># A $end
$var wire 1 ?# B $end
$var wire 1 6# CIN $end
$var wire 1 <# SUM $end
$var wire 1 ;# COUT $end
$upscope $end
$upscope $end
$upscope $end
$scope begin genblk1[18] $end
$scope module a $end
$var wire 1 N A_invert $end
$var wire 1 O B_invert $end
$var wire 1 @# cin $end
$var wire 3 A# comp [2:0] $end
$var wire 2 B# operation [1:0] $end
$var wire 1 C# src1 $end
$var wire 1 D# src2 $end
$var wire 1 E# cout $end
$var wire 1 F# add_result $end
$var reg 1 G# result $end
$scope module add_part $end
$var wire 1 H# A $end
$var wire 1 I# B $end
$var wire 1 @# CIN $end
$var wire 1 F# SUM $end
$var wire 1 E# COUT $end
$upscope $end
$upscope $end
$upscope $end
$scope begin genblk1[19] $end
$scope module a $end
$var wire 1 N A_invert $end
$var wire 1 O B_invert $end
$var wire 1 J# cin $end
$var wire 3 K# comp [2:0] $end
$var wire 2 L# operation [1:0] $end
$var wire 1 M# src1 $end
$var wire 1 N# src2 $end
$var wire 1 O# cout $end
$var wire 1 P# add_result $end
$var reg 1 Q# result $end
$scope module add_part $end
$var wire 1 R# A $end
$var wire 1 S# B $end
$var wire 1 J# CIN $end
$var wire 1 P# SUM $end
$var wire 1 O# COUT $end
$upscope $end
$upscope $end
$upscope $end
$scope begin genblk1[20] $end
$scope module a $end
$var wire 1 N A_invert $end
$var wire 1 O B_invert $end
$var wire 1 T# cin $end
$var wire 3 U# comp [2:0] $end
$var wire 2 V# operation [1:0] $end
$var wire 1 W# src1 $end
$var wire 1 X# src2 $end
$var wire 1 Y# cout $end
$var wire 1 Z# add_result $end
$var reg 1 [# result $end
$scope module add_part $end
$var wire 1 \# A $end
$var wire 1 ]# B $end
$var wire 1 T# CIN $end
$var wire 1 Z# SUM $end
$var wire 1 Y# COUT $end
$upscope $end
$upscope $end
$upscope $end
$scope begin genblk1[21] $end
$scope module a $end
$var wire 1 N A_invert $end
$var wire 1 O B_invert $end
$var wire 1 ^# cin $end
$var wire 3 _# comp [2:0] $end
$var wire 2 `# operation [1:0] $end
$var wire 1 a# src1 $end
$var wire 1 b# src2 $end
$var wire 1 c# cout $end
$var wire 1 d# add_result $end
$var reg 1 e# result $end
$scope module add_part $end
$var wire 1 f# A $end
$var wire 1 g# B $end
$var wire 1 ^# CIN $end
$var wire 1 d# SUM $end
$var wire 1 c# COUT $end
$upscope $end
$upscope $end
$upscope $end
$scope begin genblk1[22] $end
$scope module a $end
$var wire 1 N A_invert $end
$var wire 1 O B_invert $end
$var wire 1 h# cin $end
$var wire 3 i# comp [2:0] $end
$var wire 2 j# operation [1:0] $end
$var wire 1 k# src1 $end
$var wire 1 l# src2 $end
$var wire 1 m# cout $end
$var wire 1 n# add_result $end
$var reg 1 o# result $end
$scope module add_part $end
$var wire 1 p# A $end
$var wire 1 q# B $end
$var wire 1 h# CIN $end
$var wire 1 n# SUM $end
$var wire 1 m# COUT $end
$upscope $end
$upscope $end
$upscope $end
$scope begin genblk1[23] $end
$scope module a $end
$var wire 1 N A_invert $end
$var wire 1 O B_invert $end
$var wire 1 r# cin $end
$var wire 3 s# comp [2:0] $end
$var wire 2 t# operation [1:0] $end
$var wire 1 u# src1 $end
$var wire 1 v# src2 $end
$var wire 1 w# cout $end
$var wire 1 x# add_result $end
$var reg 1 y# result $end
$scope module add_part $end
$var wire 1 z# A $end
$var wire 1 {# B $end
$var wire 1 r# CIN $end
$var wire 1 x# SUM $end
$var wire 1 w# COUT $end
$upscope $end
$upscope $end
$upscope $end
$scope begin genblk1[24] $end
$scope module a $end
$var wire 1 N A_invert $end
$var wire 1 O B_invert $end
$var wire 1 |# cin $end
$var wire 3 }# comp [2:0] $end
$var wire 2 ~# operation [1:0] $end
$var wire 1 !$ src1 $end
$var wire 1 "$ src2 $end
$var wire 1 #$ cout $end
$var wire 1 $$ add_result $end
$var reg 1 %$ result $end
$scope module add_part $end
$var wire 1 &$ A $end
$var wire 1 '$ B $end
$var wire 1 |# CIN $end
$var wire 1 $$ SUM $end
$var wire 1 #$ COUT $end
$upscope $end
$upscope $end
$upscope $end
$scope begin genblk1[25] $end
$scope module a $end
$var wire 1 N A_invert $end
$var wire 1 O B_invert $end
$var wire 1 ($ cin $end
$var wire 3 )$ comp [2:0] $end
$var wire 2 *$ operation [1:0] $end
$var wire 1 +$ src1 $end
$var wire 1 ,$ src2 $end
$var wire 1 -$ cout $end
$var wire 1 .$ add_result $end
$var reg 1 /$ result $end
$scope module add_part $end
$var wire 1 0$ A $end
$var wire 1 1$ B $end
$var wire 1 ($ CIN $end
$var wire 1 .$ SUM $end
$var wire 1 -$ COUT $end
$upscope $end
$upscope $end
$upscope $end
$scope begin genblk1[26] $end
$scope module a $end
$var wire 1 N A_invert $end
$var wire 1 O B_invert $end
$var wire 1 2$ cin $end
$var wire 3 3$ comp [2:0] $end
$var wire 2 4$ operation [1:0] $end
$var wire 1 5$ src1 $end
$var wire 1 6$ src2 $end
$var wire 1 7$ cout $end
$var wire 1 8$ add_result $end
$var reg 1 9$ result $end
$scope module add_part $end
$var wire 1 :$ A $end
$var wire 1 ;$ B $end
$var wire 1 2$ CIN $end
$var wire 1 8$ SUM $end
$var wire 1 7$ COUT $end
$upscope $end
$upscope $end
$upscope $end
$scope begin genblk1[27] $end
$scope module a $end
$var wire 1 N A_invert $end
$var wire 1 O B_invert $end
$var wire 1 <$ cin $end
$var wire 3 =$ comp [2:0] $end
$var wire 2 >$ operation [1:0] $end
$var wire 1 ?$ src1 $end
$var wire 1 @$ src2 $end
$var wire 1 A$ cout $end
$var wire 1 B$ add_result $end
$var reg 1 C$ result $end
$scope module add_part $end
$var wire 1 D$ A $end
$var wire 1 E$ B $end
$var wire 1 <$ CIN $end
$var wire 1 B$ SUM $end
$var wire 1 A$ COUT $end
$upscope $end
$upscope $end
$upscope $end
$scope begin genblk1[28] $end
$scope module a $end
$var wire 1 N A_invert $end
$var wire 1 O B_invert $end
$var wire 1 F$ cin $end
$var wire 3 G$ comp [2:0] $end
$var wire 2 H$ operation [1:0] $end
$var wire 1 I$ src1 $end
$var wire 1 J$ src2 $end
$var wire 1 K$ cout $end
$var wire 1 L$ add_result $end
$var reg 1 M$ result $end
$scope module add_part $end
$var wire 1 N$ A $end
$var wire 1 O$ B $end
$var wire 1 F$ CIN $end
$var wire 1 L$ SUM $end
$var wire 1 K$ COUT $end
$upscope $end
$upscope $end
$upscope $end
$scope begin genblk1[29] $end
$scope module a $end
$var wire 1 N A_invert $end
$var wire 1 O B_invert $end
$var wire 1 P$ cin $end
$var wire 3 Q$ comp [2:0] $end
$var wire 2 R$ operation [1:0] $end
$var wire 1 S$ src1 $end
$var wire 1 T$ src2 $end
$var wire 1 U$ cout $end
$var wire 1 V$ add_result $end
$var reg 1 W$ result $end
$scope module add_part $end
$var wire 1 X$ A $end
$var wire 1 Y$ B $end
$var wire 1 P$ CIN $end
$var wire 1 V$ SUM $end
$var wire 1 U$ COUT $end
$upscope $end
$upscope $end
$upscope $end
$scope begin genblk1[30] $end
$scope module a $end
$var wire 1 N A_invert $end
$var wire 1 O B_invert $end
$var wire 1 Z$ cin $end
$var wire 3 [$ comp [2:0] $end
$var wire 2 \$ operation [1:0] $end
$var wire 1 ]$ src1 $end
$var wire 1 ^$ src2 $end
$var wire 1 _$ cout $end
$var wire 1 `$ add_result $end
$var reg 1 a$ result $end
$scope module add_part $end
$var wire 1 b$ A $end
$var wire 1 c$ B $end
$var wire 1 Z$ CIN $end
$var wire 1 `$ SUM $end
$var wire 1 _$ COUT $end
$upscope $end
$upscope $end
$upscope $end
$scope module last $end
$var wire 1 N A_invert $end
$var wire 1 O B_invert $end
$var wire 1 d$ cin $end
$var wire 1 e$ equal_in $end
$var wire 2 f$ operation [1:0] $end
$var wire 1 g$ src1 $end
$var wire 1 h$ src2 $end
$var wire 1 i$ cout $end
$var wire 1 j$ add_result $end
$var reg 1 k$ result $end
$scope module add_part $end
$var wire 1 l$ A $end
$var wire 1 m$ B $end
$var wire 1 d$ CIN $end
$var wire 1 j$ SUM $end
$var wire 1 i$ COUT $end
$upscope $end
$upscope $end
$scope module start $end
$var wire 1 N A_invert $end
$var wire 1 O B_invert $end
$var wire 1 n$ cin $end
$var wire 3 o$ comp [2:0] $end
$var wire 2 p$ operation [1:0] $end
$var wire 1 q$ src1 $end
$var wire 1 r$ src2 $end
$var wire 1 s$ cout $end
$var wire 1 t$ add_result $end
$var reg 1 u$ result $end
$scope module add_part $end
$var wire 1 v$ A $end
$var wire 1 w$ B $end
$var wire 1 n$ CIN $end
$var wire 1 t$ SUM $end
$var wire 1 s$ COUT $end
$upscope $end
$upscope $end
$upscope $end
$scope module e2 $end
$var wire 32 x$ data_i [31:0] $end
$var reg 64 y$ data_o [63:0] $end
$upscope $end
$upscope $end
$scope module Adder1 $end
$var wire 32 z$ src2_i [31:0] $end
$var wire 32 {$ sum_o [31:0] $end
$var wire 32 |$ src1_i [31:0] $end
$upscope $end
$scope module Adder2 $end
$var wire 32 }$ src2_i [31:0] $end
$var wire 32 ~$ sum_o [31:0] $end
$var wire 32 !% src1_i [31:0] $end
$upscope $end
$scope module Decoder $end
$var wire 6 "% instr_op_i [5:0] $end
$var wire 1 " rst_n $end
$var reg 1 * ALUSrc_o $end
$var reg 4 #% ALU_op_o [3:0] $end
$var reg 1 ( Branch_eq $end
$var reg 1 ) Branch_o $end
$var reg 1 & RegDst_o $end
$var reg 1 % RegWrite_o $end
$upscope $end
$scope module IM $end
$var wire 32 $% pc_addr_i [31:0] $end
$var reg 32 %% instr_o [31:0] $end
$var integer 32 &% i [31:0] $end
$upscope $end
$scope module Mux_ALUSrc1 $end
$var wire 1 + select_i $end
$var wire 32 '% data1_i [31:0] $end
$var wire 32 (% data0_i [31:0] $end
$var reg 32 )% data_o [31:0] $end
$upscope $end
$scope module Mux_ALUSrc2 $end
$var wire 1 * select_i $end
$var wire 32 *% data1_i [31:0] $end
$var wire 32 +% data0_i [31:0] $end
$var reg 32 ,% data_o [31:0] $end
$upscope $end
$scope module Mux_PC_Source $end
$var wire 32 -% data0_i [31:0] $end
$var wire 32 .% data1_i [31:0] $end
$var wire 1 /% select_i $end
$var reg 32 0% data_o [31:0] $end
$upscope $end
$scope module Mux_Write_Reg $end
$var wire 5 1% data0_i [4:0] $end
$var wire 5 2% data1_i [4:0] $end
$var wire 1 & select_i $end
$var reg 5 3% data_o [4:0] $end
$upscope $end
$scope module PC $end
$var wire 1 ! clk_i $end
$var wire 32 4% pc_in_i [31:0] $end
$var wire 1 " rst_i $end
$var reg 32 5% pc_out_o [31:0] $end
$upscope $end
$scope module RF $end
$var wire 5 6% RDaddr_i [4:0] $end
$var wire 32 7% RDdata_i [31:0] $end
$var wire 5 8% RSaddr_i [4:0] $end
$var wire 32 9% RSdata_o [31:0] $end
$var wire 5 :% RTaddr_i [4:0] $end
$var wire 32 ;% RTdata_o [31:0] $end
$var wire 1 % RegWrite_i $end
$var wire 1 ! clk_i $end
$var wire 1 " rst_i $end
$upscope $end
$scope module SE $end
$var wire 16 <% data_i [15:0] $end
$var wire 1 $ sign_i $end
$var reg 32 =% data_o [31:0] $end
$upscope $end
$scope module Shifter $end
$var wire 32 >% data_i [31:0] $end
$var wire 32 ?% data_o [31:0] $end
$upscope $end
$upscope $end
$upscope $end
$enddefinitions $end
#0
$dumpvars
b0xxxxxxxxxxxxxxxx00 ?%
b0xxxxxxxxxxxxxxxx >%
b0xxxxxxxxxxxxxxxx =%
bx <%
bx ;%
bx :%
bx 9%
bx 8%
bx 7%
bx 6%
bx 5%
bx 4%
bx 3%
bx 2%
bx 1%
bx 0%
0/%
bx .%
bx -%
bx ,%
bx +%
b0xxxxxxxxxxxxxxxx *%
bx )%
bx (%
b0xxxxxxxxxxxxxxxx '%
b100000 &%
bx %%
bx $%
b0 #%
bx "%
b0xxxxxxxxxxxxxxxx00 !%
bx ~$
bx }$
bx |$
bx {$
b100 z$
bx y$
bx x$
xw$
xv$
xu$
xt$
xs$
xr$
xq$
bx p$
bz o$
xn$
xm$
xl$
xk$
xj$
xi$
xh$
xg$
bx f$
ze$
xd$
xc$
xb$
xa$
x`$
x_$
x^$
x]$
bx \$
bz [$
xZ$
xY$
xX$
xW$
xV$
xU$
xT$
xS$
bx R$
bz Q$
xP$
xO$
xN$
xM$
xL$
xK$
xJ$
xI$
bx H$
bz G$
xF$
xE$
xD$
xC$
xB$
xA$
x@$
x?$
bx >$
bz =$
x<$
x;$
x:$
x9$
x8$
x7$
x6$
x5$
bx 4$
bz 3$
x2$
x1$
x0$
x/$
x.$
x-$
x,$
x+$
bx *$
bz )$
x($
x'$
x&$
x%$
x$$
x#$
x"$
x!$
bx ~#
bz }#
x|#
x{#
xz#
xy#
xx#
xw#
xv#
xu#
bx t#
bz s#
xr#
xq#
xp#
xo#
xn#
xm#
xl#
xk#
bx j#
bz i#
xh#
xg#
xf#
xe#
xd#
xc#
xb#
xa#
bx `#
bz _#
x^#
x]#
x\#
x[#
xZ#
xY#
xX#
xW#
bx V#
bz U#
xT#
xS#
xR#
xQ#
xP#
xO#
xN#
xM#
bx L#
bz K#
xJ#
xI#
xH#
xG#
xF#
xE#
xD#
xC#
bx B#
bz A#
x@#
x?#
x>#
x=#
x<#
x;#
x:#
x9#
bx 8#
bz 7#
x6#
x5#
x4#
x3#
x2#
x1#
x0#
x/#
bx .#
bz -#
x,#
x+#
x*#
x)#
x(#
x'#
x&#
x%#
bx $#
bz ##
x"#
x!#
x~"
x}"
x|"
x{"
xz"
xy"
bx x"
bz w"
xv"
xu"
xt"
xs"
xr"
xq"
xp"
xo"
bx n"
bz m"
xl"
xk"
xj"
xi"
xh"
xg"
xf"
xe"
bx d"
bz c"
xb"
xa"
x`"
x_"
x^"
x]"
x\"
x["
bx Z"
bz Y"
xX"
xW"
xV"
xU"
xT"
xS"
xR"
xQ"
bx P"
bz O"
xN"
xM"
xL"
xK"
xJ"
xI"
xH"
xG"
bx F"
bz E"
xD"
xC"
xB"
xA"
x@"
x?"
x>"
x="
bx <"
bz ;"
x:"
x9"
x8"
x7"
x6"
x5"
x4"
x3"
bx 2"
bz 1"
x0"
x/"
x."
x-"
x,"
x+"
x*"
x)"
bx ("
bz '"
x&"
x%"
x$"
x#"
x""
x!"
x~
x}
bx |
bz {
xz
xy
xx
xw
xv
xu
xt
xs
bx r
bz q
xp
xo
xn
xm
xl
xk
xj
xi
bx h
bz g
xf
xe
xd
xc
xb
xa
x`
x_
bx ^
bz ]
x\
x[
xZ
xY
xX
xW
xV
xU
bx T
bz S
xR
bx Q
bx P
xO
xN
bx M
bx L
bx K
bx J
bx I
bx H
bx G
bx F
bx E
bx D
xC
xB
bx A
bx @
bx ?
bx >
bx =
bx <
b0 ;
bx :
bx 9
bx 8
bx 7
bx 6
b0xxxxxxxxxxxxxxxx 5
bx 4
bx 3
b0xxxxxxxxxxxxxxxx00 2
bx 1
bx 0
bx /
bx .
bx -
b0 ,
x+
0*
0)
0(
bx '
0&
0%
0$
x#
0"
0!
$end
#5000
b100 6
b100 ~$
b100 .%
b0 2
b0 !%
b0 ?%
0h$
0r$
0^$
0T$
0J$
0@$
06$
0,$
0"$
0v#
0l#
0b#
0X#
0N#
0D#
0:#
00#
0&#
0z"
0p"
0f"
0\"
0R"
0H"
0>"
04"
0*"
0~
0t
0j
0`
0V
b0 @
b0 y$
0g$
0q$
0]$
0S$
0I$
0?$
05$
0+$
0!$
0u#
0k#
0a#
0W#
0M#
0C#
09#
0/#
0%#
0y"
0o"
0e"
0["
0Q"
0G"
0="
03"
0)"
0}
0s
0i
0_
0U
b101 E
b101 H
b0 5
b0 '%
b0 *%
b0 =%
b0 >%
0+
b0 8
b0 >
b0 J
b0 x$
b0 ,%
b0 9
b0 ?
b0 K
b0 )%
b0 1
b0 3%
b0 6%
b0 <%
b0 :
b0 "%
b0 .
b0 +%
b0 ;%
b0 :%
b0 /
b0 (%
b0 9%
b0 8%
b0 2%
b0 1%
b100 4
b100 0%
b100 4%
b0 '
b0 %%
b100 7
b100 {$
b100 }$
b100 -%
b0 3
b0 |$
b0 $%
b0 5%
1!
#10000
1%
1&
0!
1"
#15000
xg$
xq$
x]$
xS$
xI$
x?$
x5$
x+$
x!$
xu#
xk#
xa#
xW#
xM#
xC#
x9#
x/#
x%#
xy"
xo"
xe"
x["
xQ"
xG"
x="
x3"
x)"
x}
xs
xi
x_
xU
xh$
xr$
x^$
xT$
xJ$
x@$
x6$
x,$
x"$
xv#
xl#
xb#
xX#
xN#
xD#
x:#
x0#
x&#
xz"
xp"
xf"
x\"
xR"
xH"
x>"
x4"
x*"
x~
xt
xj
x`
xV
bx @
bx y$
b1000 4
b1000 0%
b1000 4%
bx 9
bx ?
bx K
bx )%
bx 8
bx >
bx J
bx x$
bx ,%
b1000 6
b1000 ~$
b1000 .%
b1000 7
b1000 {$
b1000 }$
b1000 -%
b100 3
b100 |$
b100 $%
b100 5%
bx /
bx (%
bx 9%
bx .
bx +%
bx ;%
1!
#20000
0!
#25000
b1100 4
b1100 0%
b1100 4%
b1100 6
b1100 ~$
b1100 .%
b1100 7
b1100 {$
b1100 }$
b1100 -%
b1000 3
b1000 |$
b1000 $%
b1000 5%
1!
#30000
0!
#35000
b10000 4
b10000 0%
b10000 4%
b10000 6
b10000 ~$
b10000 .%
b10000 7
b10000 {$
b10000 }$
b10000 -%
b1100 3
b1100 |$
b1100 $%
b1100 5%
1!
#40000
0!
#45000
b10100 4
b10100 0%
b10100 4%
b10100 6
b10100 ~$
b10100 .%
b10100 7
b10100 {$
b10100 }$
b10100 -%
b10000 3
b10000 |$
b10000 $%
b10000 5%
1!
#50000
0!
#55000
b11000 4
b11000 0%
b11000 4%
b11000 6
b11000 ~$
b11000 .%
b11000 7
b11000 {$
b11000 }$
b11000 -%
b10100 3
b10100 |$
b10100 $%
b10100 5%
1!
#60000
0!
#65000
b11100 4
b11100 0%
b11100 4%
b11100 6
b11100 ~$
b11100 .%
b11100 7
b11100 {$
b11100 }$
b11100 -%
b11000 3
b11000 |$
b11000 $%
b11000 5%
1!
#70000
0!
